JN14,Password%,SanTest16,506,316,Buyer16,Seller16,JMeterTest- DEAL2-1
JN24,Password%,SanTest17,507,317,Buyer17,Seller17,JMeterTest- DEAL2-2
JN34,Password%,SanTest18,508,318,Buyer18,Seller18,JMeterTest- DEAL2-3
JN44,Password%,SanTest19,509,319,Buyer19,Seller19,JMeterTest- DEAL2-4
JN54,Password%,SanTest20,600,320,Buyer20,Seller20,JMeterTest- DEAL2-5
JN64,Password%,SanTest21,601,321,Buyer21,Seller21,JMeterTest- DEAL2-6
JN74,Password%,SanTest22,602,322,Buyer22,Seller22,JMeterTest- DEAL2-7
JN84,Password%,SanTest23,603,323,Buyer23,Seller23,JMeterTest- DEAL2-8
JN94,Password%,SanTest24,604,324,Buyer24,Seller24,JMeterTest- DEAL2-9
JN104,Password%,SanTest25,605,325,Buyer25,Seller25,JMeterTest- DEAL2-10