siegfried_cosijns_argus_206,Password%,JMeterTest- READNW-1
amandeep.parmar_argus_118,Password%,JMeterTest- READNW-2
richard.kent_argus_214,Password%,JMeterTest- READNW-3
cjudge,Password%,JMeterTest- READNW-4
trine.juliussen_argus_250,Password%,JMeterTest- READNW-5
vkk_argus_247,Password%,JMeterTest- READNW-6
bruno.cointe_argus_259,Password%,JMeterTest- READNW-7
cyrille.chopin_argus_258,Password%,JMeterTest- READNW-8
philippe.druet_argus_256,Password%,JMeterTest- READNW-9
xavier.sanz-y-prast_argus_257,Password%,JMeterTest- READNW-10


