torsten.fiebrich,Password%
torsten.fiebrich_argus_74,Password%
trine.juliussen_argus_250,Password%
Umut.Kuzu_argus_177,Password%
vkk_argus_247,Password%
xavier.sanz-y-prast_argus_257,Password%
zaira.dupont_argus_216,Password%
volker.probst_argus_9,Password%
tom.crampin_argus_59,Password%
tim.beasant_argus_41,Password%