JT12,Password%,JMeterTest- READNW-1
JT22,Password%,JMeterTest- READNW-2
JT32,Password%,JMeterTest- READNW-3
JT42,Password%,JMeterTest- READNW-4
JT52,Password%,JMeterTest- READNW-5
JT62,Password%,JMeterTest- READNW-6
JT72,Password%,JMeterTest- READNW-7
JT82,Password%,JMeterTest- READNW-8
JT92,Password%,JMeterTest- READNW-9
JT102,Password%,JMeterTest- READNW-10

