tickeruattest11@argusmedia.com,XYZ
tickeruattest12@argusmedia.com,XYZ
tickeruattest13@argusmedia.com,XYZ
tickeruattest14@argusmedia.com,XYZ
tickeruattest15@argusmedia.com,XYZ
tickeruattest16@argusmedia.com,XYZ
tickeruattest17@argusmedia.com,XYZ
tickeruattest18@argusmedia.com,XYZ
tickeruattest19@argusmedia.com,XYZ
tickeruattest20@argusmedia.com,XYZ