tickeruattest1@argusmedia.com,XYZ
tickeruattest2@argusmedia.com,XYZ
tickeruattest3@argusmedia.com,XYZ
tickeruattest4@argusmedia.com,XYZ
tickeruattest5@argusmedia.com,XYZ
tickeruattest6@argusmedia.com,XYZ
tickeruattest7@argusmedia.com,XYZ
tickeruattest8@argusmedia.com,XYZ
tickeruattest9@argusmedia.com,XYZ
tickeruattest10@argusmedia.com,XYZ
tickeruattest11@argusmedia.com,XYZ
tickeruattest12@argusmedia.com,XYZ
tickeruattest13@argusmedia.com,XYZ
tickeruattest14@argusmedia.com,XYZ
tickeruattest15@argusmedia.com,XYZ
tickeruattest16@argusmedia.com,XYZ
tickeruattest17@argusmedia.com,XYZ
tickeruattest18@argusmedia.com,XYZ
tickeruattest19@argusmedia.com,XYZ
tickeruattest20@argusmedia.com,XYZ
tickeruattest21@argusmedia.com,XYZ
tickeruattest22@argusmedia.com,XYZ
tickeruattest23@argusmedia.com,XYZ
tickeruattest24@argusmedia.com,XYZ
tickeruattest25@argusmedia.com,XYZ
tickeruattest26@argusmedia.com,XYZ
tickeruattest27@argusmedia.com,XYZ
tickeruattest28@argusmedia.com,XYZ
tickeruattest29@argusmedia.com,XYZ
tickeruattest30@argusmedia.com,XYZ
tickeruattest31@argusmedia.com,XYZ
tickeruattest32@argusmedia.com,XYZ
tickeruattest33@argusmedia.com,XYZ
tickeruattest34@argusmedia.com,XYZ
tickeruattest35@argusmedia.com,XYZ