JM164,Password%,9005,JMeterTest- ASK-1
JM174,Password%,9010,JMeterTest- ASK-2
JM184,Password%,9015,JMeterTest- ASK-3
JM194,Password%,9020,JMeterTest- ASK-4
JM204,Password%,9025,JMeterTest- ASK-5
JM214,Password%,9030,JMeterTest- ASK-6
JM224,Password%,9035,JMeterTest- ASK-7
JM234,Password%,9040,JMeterTest- ASK-8
JM244,Password%,9045,JMeterTest- ASK-9 
JM254,Password%,9050,JMeterTest- ASK-10