A.Weinhardt_argus_138,Password%,7005,JMeterTest- BID1-1
alexis_cazin_argus_203,Password%,7010,JMeterTest- BID1-2
alphonse_de_gabrielli_argus_204,Password%,7015,JMeterTest- BID1-3
anthony.lamache_argus_262,Password%,7020,JMeterTest- BID1-4
antoine.bardet_argus_125,Password%,7025,JMeterTest- BID1-5
b.sturmheit_argus_173,Password%,7030,JMeterTest- BID1-6
ben.davies_argus_213,Password%,7035,JMeterTest- BID1-7
cameron.ritchie_argus_162,Password%,7040,JMeterTest- BID1-8
cara.vanBuerck_argus_266,Password%,7045,JMeterTest- BID1-9
chen.yao_argus_282,Password%,7050,JMeterTest- BID1-10