tickeruattest31@argusmedia.com,XYZ
tickeruattest32@argusmedia.com,XYZ
tickeruattest33@argusmedia.com,XYZ
tickeruattest34@argusmedia.com,XYZ
tickeruattest35@argusmedia.com,XYZ
tickeruattest36@argusmedia.com,XYZ
tickeruattest37@argusmedia.com,XYZ
tickeruattest38@argusmedia.com,XYZ
tickeruattest39@argusmedia.com,XYZ
tickeruattest40@argusmedia.com,XYZ