JM264,Password%,9055,JMeterTest- ASK3-1
JM274,Password%,9060,JMeterTest- ASK3-2
JM284,Password%,9065,JMeterTest- ASK3-3
JM294,Password%,9070,JMeterTest- ASK3-4
JM304,Password%,9075,JMeterTest- ASK3-5
JM414,Password%,9130,JMeterTest- ASK3-6
JM424,Password%,9135,JMeterTest- ASK3-7
JM434,Password%,9140,JMeterTest- ASK3-8
JM444,Password%,9145,JMeterTest- ASK3-9
JM454,Password%,9150,JMeterTest- ASK3-10