JM464,Password%,SanTest1,10001,301,Buyer01,SeJMJMer01,JMeterTest- DEAL-1
JM474,Password%,SanTest2,10002,302,Buyer02,SeJMJMer02,JMeterTest- DEAL-2
JM484,Password%,SanTest3,10003,303,Buyer03,SeJMJMer03,JMeterTest- DEAL-3
JM494,Password%,SanTest4,10004,304,Buyer04,SeJMJMer04,JMeterTest- DEAL-4
JM504,Password%,SanTest5,10005,305,Buyer05,SeJMJMer05,JMeterTest- DEAL-5
JM514,Password%,SanTest6,10006,306,Buyer06,SeJMJMer06,JMeterTest- DEAL-6
JM524,Password%,SanTest7,10007,307,Buyer07,SeJMJMer07,JMeterTest- DEAL-7
JM534,Password%,SanTest8,10008,308,Buyer08,SeJMJMer08,JMeterTest- DEAL-8
JM544,Password%,SanTest9,10009,309,Buyer09,SeJMJMer09,JMeterTest- DEAL-9
JM554,Password%,SanTest10,10010,310,Buyer10,SeJMJMer10,JMeterTest- DEAL-10