pu1,Password%,JMeterTest- READOT-1
ae1,Password%,JMeterTest- READOT-2
bruno.cointe_argus_259,Password%,JMeterTest- READOT-3
daniel.nevitt_argus_27,Password%,JMeterTest- READOT-4
daniel.seaman_argus_27,Password%,JMeterTest- READOT-5
frederic.meeus_argus_51,Password%,JMeterTest- READOT-6
frank.baum_argus_78,Password%,JMeterTest- READOT-7
jade.delafraye_argus_215,Password%,JMeterTest- READOT-8
James.Curphey_argus_141,Password%,JMeterTest- READOT-9
jburgess,Password%,JMeterTest- READOT-10
