JM13,Password%,SanTest11,606,311,Buyer11,Seller11,JMeterTest- DEAL3-1
JM23,Password%,SanTest12,607,312,Buyer12,Seller12,JMeterTest- DEAL3-2
JM33,Password%,SanTest13,608,313,Buyer13,Seller13,JMeterTest- DEAL3-3
JM43,Password%,SanTest14,609,314,Buyer14,Seller14,JMeterTest- DEAL3-4
JM53,Password%,SanTest15,610,315,Buyer15,Seller15,JMeterTest- DEAL3-5
JM63,Password%,SanTest26,611,326,Buyer26,Seller26,JMeterTest- DEAL3-6
JM73,Password%,SanTest27,612,327,Buyer27,Seller27,JMeterTest- DEAL3-7
JM83,Password%,SanTest28,613,328,Buyer28,Seller28,JMeterTest- DEAL3-8
JM93,Password%,SanTest29,614,329,Buyer29,Seller29,JMeterTest- DEAL3-9
JM103,Password%,SanTest30,615,330,Buyer30,Seller30,JMeterTest- DEAL3-10








