matthew.gould_argus_166,Password%
michael.coomber_argus_252,Password%
michel.sas_argus_182,Password%
nlm_argus_80,Password%
oliver.griesbach_argus_269,Password%
olr_argus_106,Password%
orp_argus_79,Password%
philippe.druet_argus_256,Password%
pritesh.sonigra_argus_159,Password%
richard.king_argus_251,Password%