tickeruattest1@argusmedia.com,XYZ
tickeruattest2@argusmedia.com,XYZ
tickeruattest3@argusmedia.com,XYZ
tickeruattest4@argusmedia.com,XYZ
tickeruattest5@argusmedia.com,XYZ
tickeruattest6@argusmedia.com,XYZ
tickeruattest7@argusmedia.com,XYZ
tickeruattest8@argusmedia.com,XYZ
tickeruattest9@argusmedia.com,XYZ
tickeruattest10@argusmedia.com,XYZ
