Username|OrganisationShortCode|Rolename
UA14|UA1|Trader: Naphtha CIF NWE - Cargoes
UA24|UA2|Trader: Naphtha CIF NWE - Cargoes 
UA34|UA3|Trader: Naphtha CIF NWE - Cargoes 
UA44|UA4|Trader: Naphtha CIF NWE - Cargoes 
UA54|UA5|Trader: Naphtha CIF NWE - Cargoes 
UA64|UA6|Trader: Naphtha CIF NWE - Cargoes 
UA74|UA7|Trader: Naphtha CIF NWE - Cargoes 
UA84|UA8|Trader: Naphtha CIF NWE - Cargoes 
UA94|UA9|Trader: Naphtha CIF NWE - Cargoes 
UA104|UA10|Trader: Naphtha CIF NWE - Cargoes 
UB14|UB1|Broker: Naphtha CIF NWE - Cargoes
UB24|UB2|Broker: Naphtha CIF NWE - Cargoes 
UB34|UB3|Broker: Naphtha CIF NWE - Cargoes 
UB44|UB4|Broker: Naphtha CIF NWE - Cargoes 
UB54|UB5|Broker: Naphtha CIF NWE - Cargoes 
UB64|UB6|Broker: Naphtha CIF NWE - Cargoes 
UB74|UB7|Broker: Naphtha CIF NWE - Cargoes 
UB84|UB8|Broker: Naphtha CIF NWE - Cargoes 
UB94|UB9|Broker: Naphtha CIF NWE - Cargoes 
UA14|UA1|Local Administrator
UA24|UA2|Local Administrator 
UA34|UA3|Local Administrator 
UA44|UA4|Local Administrator 
UA54|UA5|Local Administrator 
UA64|UA6|Local Administrator 
UA74|UA7|Local Administrator 
UA84|UA8|Local Administrator 
UA94|UA9|Local Administrator 
UA104|UA10|Local Administrator 
UB14|UB1|Local Administrator
UB24|UB2|Local Administrator 
UB34|UB3|Local Administrator 
UB44|UB4|Local Administrator 
UB54|UB5|Local Administrator 
UB64|UB6|Local Administrator 
UB74|UB7|Local Administrator 
UB84|UB8|Local Administrator 
UB94|UB9|Local Administrator 
UA14|UA1|Trader: Naphtha CIF ARA - Barges
UA24|UA2|Trader: Naphtha CIF ARA - Barges 
UA34|UA3|Trader: Naphtha CIF ARA - Barges 
UA44|UA4|Trader: Naphtha CIF ARA - Barges 
UA54|UA5|Trader: Naphtha CIF ARA - Barges 
UA64|UA6|Trader: Naphtha CIF ARA - Barges 
UA74|UA7|Trader: Naphtha CIF ARA - Barges 
UA84|UA8|Trader: Naphtha CIF ARA - Barges 
UA94|UA9|Trader: Naphtha CIF ARA - Barges 
UA104|UA10|Trader: Naphtha CIF ARA - Barges 
UB14|UB1|Broker: Naphtha CIF ARA - Barges
UB24|UB2|Broker: Naphtha CIF ARA - Barges 
UB34|UB3|Broker: Naphtha CIF ARA - Barges 
UB44|UB4|Broker: Naphtha CIF ARA - Barges 
UB54|UB5|Broker: Naphtha CIF ARA - Barges 
UB64|UB6|Broker: Naphtha CIF ARA - Barges 
UB74|UB7|Broker: Naphtha CIF ARA - Barges 
UB84|UB8|Broker: Naphtha CIF ARA - Barges 
UB94|UB9|Broker: Naphtha CIF ARA - Barges 